{
  "type": "service_account",
  "project_id": "ikanbid-85631",
  "private_key_id": "789b5dd2098e82a395d7dfb64a372e7b0f888b8b",
  "private_key": "-----BEGIN PRIVATE KEY-----\nMIIEvAIBADANBgkqhkiG9w0BAQEFAASCBKYwggSiAgEAAoIBAQCcPX3dWOIhqXGR\nj3zqJbxGvg6lB5xB4viR5ba1aZQkXjtvcOKBcodq2LngIgvQx2fvHhe1b53de9bT\ngcHU3j6l/8o26RsxaY5d3Ih/duBn4kym5igBhdinFD9ClgQFOujJWN0uhg2yxrd7\njUP83XrXYGwTaKLwJe37TgkqyXBKHanU2WmklPni0VjdRxT7zHj+fApI4e0OQXkk\n+io6QKMsEP+nOfUZ+CnC3H2/cRVAf/g8+jjERgy7dTe9U9z480mKjGbL8mfp3nqu\n5pVc1egYlhU8KknwiWob/xiEX+lsyKGYVo5mrATbqYpqtVj5C4qTSW/M1MD6YaWR\n7JC+0tvPAgMBAAECggEABfGw9YLe145YFm7xvwFrMFB6w3yOoqhn8eUIwSN10gxj\nu9Gnob/MYcbtC2yVgSk/owaaEE+2ydO0UJ0B1X9pvWxbMnZGj+gG1TtWq21yYYFn\n49GjJAEGRRUCyHMR+WuhqkdfOC3mx4PCkfNwlWY3uN9KPVLLICfRQ1usrZwMUZrQ\nFIdNIWGe3Sp9x2LPCE98sTx//Jz1WhMLq/0r5ksuPCsR310hXhKurpJDTV3s6Vf8\nN7PU4mASDpeInkL1yRzZs4Rz0fcAj48gADt/C0gwcCFr/jAsoBPmdPi1tey4Wgy0\nFhdeQHnTuldWnqGBwLDhR30w+wFAEioHdWNfr9WvQQKBgQDN/i00/uxet/V1vPtH\n5jsf905yIj2XgTQsVcniy/PHb5sYyWpHQlqqtTFqtJ+Wc2YNV9WBUoy0Y6XZEOwD\nCOgjbqovsxlwGss1eR6z8eQjmsK0604QBLh4XY99kfHTk3ldr9LBuP4C7Y5+333p\n3TU7rn+yx40oz2KDA5XvspD0xQKBgQDCK1bicB9oo7zra82+QLSzlJvPEd+L3K+e\nf/mH9wTusewcAcfwC8S1aQT2DsybWeCrrhrvwbYm7FGBH9q0SHuqCozbz7pRNuBj\nquFq/TsJdJl0neq4796CxEVwX/kTyOkOgTZqrNmoPo+VeNvyTjggCVwr41+lgdkv\nNeKQ1pbfgwKBgE7rFj67e6s+JxgYcty04+n3QWKQo7Arm+VwaIwvPxIlO/JfGAx8\n62eDS49p68okI/Dwuad2DNn/Y0aqKQFwpB8PAryLjS9Z1IiEArNF9PV/ESFnFN0m\nMdZLYfHlvBQm59Rwy/nT+dz9Th5lWUQDr6VR0TKZKQd9jGxNL2BJtSdRAoGAALtX\nFX1ksOlFEgITAW+O/spFmA8yL33Cb699ykRlEV08TZK4JTB2KlTd/utpXACHtz3t\nvg+V1ym22Oy8z0ciqC5n/4AV7K5vRBDlzphru4pj9auOsem9hfKlbFoAP1HXhwV3\npglGvLqXofGVqqEe1wgR/9xYhPArWGE0nGUipm8CgYBNHGsKWWntqZfiu65clq/d\ncxLcGKRkb/FMCA6oDDnzonoQGMQHy6cvDWmPf5blcfG9ssL6LhEL8t+RUu+ruOWC\nWbBhBGxdXc7pGuWM1waWzTwy6j0E91mY8eHSca2AWhANJsXEp130p/7nTfr3tG4p\nDZylhIgkAimIOtZi1qMF8Q==\n-----END PRIVATE KEY-----\n",
  "client_email": "firebase-adminsdk-5rp5y@ikanbid-85631.iam.gserviceaccount.com",
  "client_id": "117181493286623380751",
  "auth_uri": "https://accounts.google.com/o/oauth2/auth",
  "token_uri": "https://oauth2.googleapis.com/token",
  "auth_provider_x509_cert_url": "https://www.googleapis.com/oauth2/v1/certs",
  "client_x509_cert_url": "https://www.googleapis.com/robot/v1/metadata/x509/firebase-adminsdk-5rp5y%40ikanbid-85631.iam.gserviceaccount.com"
}
